{
	"info": {
		"_postman_id": "5b5a4caa-d831-41d5-b277-5a0e97e41307",
		"name": "FinancialService",
		"schema": "https://schema.getpostman.com/json/collection/v2.1.0/collection.json",
		"_exporter_id": "11896861"
	},
	"item": [
		{
			"name": "login",
			"request": {
				"method": "POST",
				"header": [],
				"body": {
					"mode": "formdata",
					"formdata": [
						{
							"key": "email",
							"value": "eee",
							"type": "text"
						},
						{
							"key": "password",
							"value": "eee",
							"type": "text"
						}
					]
				},
				"url": {
					"raw": "http://127.0.0.1:8000/api/login",
					"protocol": "http",
					"host": [
						"127",
						"0",
						"0",
						"1"
					],
					"port": "8000",
					"path": [
						"api",
						"login"
					]
				}
			},
			"response": []
		},
		{
			"name": "GetLoans",
			"protocolProfileBehavior": {
				"disableBodyPruning": true
			},
			"request": {
				"auth": {
					"type": "bearer",
					"bearer": [
						{
							"key": "token",
							"value": "{{authtoken}}",
							"type": "string"
						},
						{
							"key": "password",
							"value": "{{authtoken}}",
							"type": "string"
						}
					]
				},
				"method": "GET",
				"header": [
					{
						"key": "Accept",
						"value": "application/json",
						"type": "text"
					}
				],
				"body": {
					"mode": "raw",
					"raw": "",
					"options": {
						"raw": {
							"language": "json"
						}
					}
				},
				"url": {
					"raw": "http://127.0.0.1:8000/api/loans",
					"protocol": "http",
					"host": [
						"127",
						"0",
						"0",
						"1"
					],
					"port": "8000",
					"path": [
						"api",
						"loans"
					]
				}
			},
			"response": []
		},
		{
			"name": "LoanPost",
			"request": {
				"auth": {
					"type": "bearer",
					"bearer": [
						{
							"key": "token",
							"value": "3|ceEHslEkzQvhIAipCWLc80aBeA917Xp2B2a6g7wZ",
							"type": "string"
						},
						{
							"key": "password",
							"value": "{{authtoken}}",
							"type": "string"
						}
					]
				},
				"method": "POST",
				"header": [
					{
						"key": "Accept",
						"value": "application/json",
						"type": "text"
					}
				],
				"body": {
					"mode": "raw",
					"raw": "{\r\n    \"data\": {\r\n        \"type\": \"App\\\\Models\\\\Loan\",\r\n        \"attributes\": {\r\n            \"amount\": \"10.00\",\r\n            \"installment_frequency\": \"weekly\",\r\n            \"installment_duration\": \"3\"\r\n        }\r\n    }\r\n}",
					"options": {
						"raw": {
							"language": "json"
						}
					}
				},
				"url": {
					"raw": "http://127.0.0.1:8000/api/loans",
					"protocol": "http",
					"host": [
						"127",
						"0",
						"0",
						"1"
					],
					"port": "8000",
					"path": [
						"api",
						"loans"
					]
				}
			},
			"response": []
		},
		{
			"name": "LoanPatch",
			"request": {
				"auth": {
					"type": "bearer",
					"bearer": [
						{
							"key": "token",
							"value": "3|ceEHslEkzQvhIAipCWLc80aBeA917Xp2B2a6g7wZ",
							"type": "string"
						},
						{
							"key": "password",
							"value": "{{authtoken}}",
							"type": "string"
						}
					]
				},
				"method": "POST",
				"header": [
					{
						"key": "Accept",
						"value": "application/json",
						"type": "text"
					}
				],
				"body": {
					"mode": "raw",
					"raw": "{\r\n    \"data\": {\r\n        \"type\": \"App\\\\Models\\\\Loan\",\r\n        \"id\":44,\r\n        \"attributes\": {\r\n            \"status\": \"approved\"\r\n        }\r\n    }\r\n}",
					"options": {
						"raw": {
							"language": "json"
						}
					}
				},
				"url": {
					"raw": "http://127.0.0.1:8000/api/loans/44?_method=patch",
					"protocol": "http",
					"host": [
						"127",
						"0",
						"0",
						"1"
					],
					"port": "8000",
					"path": [
						"api",
						"loans",
						"44"
					],
					"query": [
						{
							"key": "_method",
							"value": "patch"
						}
					]
				}
			},
			"response": []
		},
		{
			"name": "PayInstallment",
			"request": {
				"auth": {
					"type": "bearer",
					"bearer": [
						{
							"key": "token",
							"value": "3|ceEHslEkzQvhIAipCWLc80aBeA917Xp2B2a6g7wZ",
							"type": "string"
						},
						{
							"key": "password",
							"value": "{{authtoken}}",
							"type": "string"
						}
					]
				},
				"method": "POST",
				"header": [
					{
						"key": "Accept",
						"value": "application/json",
						"type": "text"
					}
				],
				"body": {
					"mode": "raw",
					"raw": "{\r\n    \"data\": {\r\n        \"type\": \"App\\\\Models\\\\Loan\",\r\n        \"id\":44,\r\n        \"attributes\": {\r\n            \"status\": \"approved\"\r\n        }\r\n    }\r\n}",
					"options": {
						"raw": {
							"language": "json"
						}
					}
				},
				"url": {
					"raw": "http://127.0.0.1:8000/api/loans/44?_method=patch",
					"protocol": "http",
					"host": [
						"127",
						"0",
						"0",
						"1"
					],
					"port": "8000",
					"path": [
						"api",
						"loans",
						"44"
					],
					"query": [
						{
							"key": "_method",
							"value": "patch"
						}
					]
				}
			},
			"response": []
		}
	]
}